{
  "footer": {
    "name": "moryama",
    "stickyFooter": "https://philipwalton.github.io/solved-by-flexbox/demos/sticky-footer/",
    "mail": "mailto:5599992-moryama@users.noreply.gitlab.com",
    "gitlab": "https://gitlab.com/moryama"
  }
}
